{
  "project_info": {
    "project_number": "574774827306",
    "project_id": "stuckly-app",
    "storage_bucket": "stuckly-app.appspot.com"
  },
  "client": [
    {
      "client_info": {
        "mobilesdk_app_id": "1:574774827306:android:163c572385ea3dff21a653",
        "android_client_info": {
          "package_name": "com.devsaar.stuckapp"
        }
      },
      "oauth_client": [
        {
          "client_id": "574774827306-ufb40qb8bpsipud63sgn1q9mlte5lb7b.apps.googleusercontent.com",
          "client_type": 3
        }
      ],
      "api_key": [
        {
          "current_key": "AIzaSyASTedgUAlkHeSg6iY2D96wriHzLAfTfW4"
        }
      ],
      "services": {
        "appinvite_service": {
          "other_platform_oauth_client": [
            {
              "client_id": "574774827306-ufb40qb8bpsipud63sgn1q9mlte5lb7b.apps.googleusercontent.com",
              "client_type": 3
            }
          ]
        }
      }
    }
  ],
  "configuration_version": "1"
}